{
  $schema: "https://docs.renovatebot.com/renovate-schema.json",
  extends: [
    "github>remal/renovate-config:jre",
  ],
  baseBranches: ["develop"],

  //commitMessagePrefix: "[skip ci]",

  //automerge: true,
  //gitLabAutomerge: true,
  //automergeType: "branch",
  requiredStatusChecks: null,

  packageRules: [
    {
      packagePatterns: ["^name\\.remal(\\.gradle-plugins)?:gradle-plugins(-.+)?$"],
      stabilityDays: 0,
      automerge: true,
      gitLabAutomerge: true,
      automergeType: "branch",
      requiredStatusChecks: null,
    },
    {
      description: ["Kotlin", "Should always be automatically retrieved from Gradle installation"],
      packagePatterns: ["^org\\.jetbrains\\.kotlin:.+"],
      enabled: false,
    },
    {
      description: ["kotlinx-html-jvm", "Should be compatible with Kotlin 1.3.0"],
      packageNames: ["org.jetbrains.kotlinx:kotlinx-html-jvm"],
      allowedVersions: "<0.7",
    },

    // Automerge:
    {
      packageNames: [
        "com.google.javascript:closure-compiler",
        "com.gradle.publish:plugin-publish-plugin",
        "com.puppycrawl.tools:checkstyle",
        "com.mebigfatguy.fb-contrib:fb-contrib",
        "com.h3xstream.findsecbugs:findsecbugs-plugin",
        "gradle.plugin.org.jetbrains.gradle.plugin.idea-ext:gradle-idea-ext",
      ],
      automerge: true,
      gitLabAutomerge: true
    },
    {
      packagePatterns: [
        "^org\\.ow2\\.asm([:.]|$)",
        "^com\\.fasterxml\\.jackson([:.]|$)",
        "^org\\.jacoco([:.]|$)",
        "^io\\.gitlab\\.arturbosch\\.detekt([:.]|$)",
        "^org\\.sonarsource([:.]|$)",
        "^com\\.github\\.spotbugs([:.]|$)",
        "^com\\.google\\.code\\.findbugs([:.]|$)",
      ],
      automerge: true,
      gitLabAutomerge: true
    },

    // Automerge: minor & patch
    {
      packagePatterns: [".*"],
      updateTypes: ["minor", "patch"],
      automerge: true,
      gitLabAutomerge: true
    },
  ],

  'gradle-wrapper': {
    major: {
      description: ["Don't update Gradle major version"],
      enabled: false,
    },
    minor: {
      description: ["Don't update Gradle minor version"],
      enabled: false,
    }
  },

  gitlabci: {
    description: ["Don't update GitLab CI dependencies"],
    enabled: false,
  },
}
